in24.inetnebr.com - - [01/Aug/1995:00:00:01 -0400] "GET /shuttle/missions/sts-68/news/sts-68-mcc-05.txt HTTP/1.0" 200 1839
uplherc.upl.com - - [01/Aug/1995:00:00:07 -0400] "GET / HTTP/1.0" 404 0
uplherc.upl.com - - [01/Aug/1995:00:00:08 -0400] "GET /images/ksclogo-medium.gif HTTP/1.0" 304 0
137.197.52.21 - - [05/Aug/1995:15:08:41 -0400] "GET /images/crawlerway-logo.gif HTTP/1.0" 404 -
uplherc.upl.com - - [01/Aug/1995:00:00:08 -0400] "GET /images/MOSAIC-logosmall.gif HTTP/1.0" 304044 0
uplherc.upl.com - - [01/Aug/1995:00:00:08 -0400] "GET /images/USA-logosmall.gif HTTP/1.0" 304 0
uplherc.upl.com - - [01/Aug/1995:00:00:08 -0400] "GET /images/USA-logosmall.gif HTTP/1.0" 404 0
uplherc.upl.com - - [01/Aug/1995:00:00:08 -0400] "GET /images/USA-logosmall.gif HTTP/1.0" 404 0
137.197.52.21 - - [05/Aug/1995:15:08:41 -0400] "GET /images/crawlerway-logo.gif HTTP/1.0" 404 -
uplherc.upl.com - - [01/Aug/1995:00:00:08 -0400] "GET /images/USA-logosmall.gif HTTP/1.0" 404 0
uplherc.upl.com - - [01/Aug/1995:00:00:08 -0400] "GET /images/USA-logosmall.gif HTTP/1.0" 404 0
ix-esc-ca2-07.ix.netcom.com - - [01/Aug/1995:00:00:09 -0400] "GET /images/launch-logo.gif HTTP/1.0" 200 1713
uplherc.upl.com - - [01/Aug/1995:00:00:10 -0400] "GET /images/WORLD-logosmall.gif HTTP/1.0" 304 0
slppp6.intermind.net - - [01/Aug/1995:00:00:10 -0400] "GET /history/skylab/skylab.html HTTP/1.0" 200 1687
piweba4y.prodigy.com - - [01/Aug/1995:00:00:10 -0400] "GET /images/launchmedium.gif HTTP/1.0" 404 11853
piweba4y.prodigy.com - - [01/Aug/1995:00:00:10 -0400] "GET /images/launchmedium.gif HTTP/1.0" 404 11853
piweba4y.prodigy.com - - [01/Aug/1995:00:00:10 -0400] "GET /images/launchmedium.gif HTTP/1.0" 200 11853
hix.cs.uoregon.edu - - [05/Aug/1995:15:13:56 -0400] "GET /history/apollo/apollo13/movies/apo13home.mpg HTTP/1.0" 404 -
slppp6.intermind.net - - [01/Aug/1995:00:00:11 -0400] "GET /history/skylab/skylab-small.gif HTTP/1.0" 200 9202
slppp6.intermind.net - - [01/Aug/1995:00:00:12 -0400] "GET /images/ksclogosmall.gif HTTP/1.0" 200 3635
137.197.52.21 - - [05/Aug/1995:15:08:41 -0400] "GET /images/crawlerway-logo.gif HTTP/1.0" 404 -
hix.cs.uoregon.edu - - [05/Aug/1995:15:13:56 -0400] "GET /history/apollo/apollo13/movies/apo13home.mpg HTTP/1.0" 404 -
163.246.109.8 - - [05/Aug/1995:15:30:07 -0400] "GET /images/NASA-logosmall.gif HTTP/1.0" 200 786
sun20.ccd.bnl.gov - - [05/Aug/1995:15:30:09 -0400] "GET /images/ HTTP/1.0" 200 17688
sun20.ccd.bnl.gov - - [05/Aug/1995:15:30:10 -0400] "GET /icons/menu.xbm HTTP/1.0" 200 527
sun20.ccd.bnl.gov - - [05/Aug/1995:15:30:10 -0400] "GET /icons/blank.xbm HTTP/1.0" 200 509
sun20.ccd.bnl.gov - - [05/Aug/1995:15:30:10 -0400] "GET /icons/image.xbm HTTP/1.0" 200 509
sun20.ccd.bnl.gov - - [05/Aug/1995:15:30:11 -0400] "GET /icons/unknown.xbm HTTP/1.0" 200 515
163.246.109.8 - - [05/Aug/1995:15:30:11 -0400] "GET /images/MOSAIC-logosmall.gif HTTP/1.0" 200 363
163.246.109.8 - - [05/Aug/1995:15:30:17 -0400] "GET /images/USA-logosmall.gif HTTP/1.0" 200 234
163.246.109.8 - - [05/Aug/1995:15:30:19 -0400] "GET /images/WORLD-logosmall.gif HTTP/1.0" 200 669
sun20.ccd.bnl.gov - - [05/Aug/1995:15:30:19 -0400] "GET /images/IMPACT.JPG HTTP/1.0" 200 169883
sun20.ccd.bnl.gov - - [05/Aug/1995:15:30:24 -0400] "GET /images/263_small.jpg HTTP/1.0" 200 159673
dp097.ppp.iglou.com - - [05/Aug/1995:15:30:27 -0400] "GET /history/apollo/apollo-13/images/index.gif HTTP/1.0" 200 99942
dp097.ppp.iglou.com - - [05/Aug/1995:15:30:28 -0400] "GET /history/apollo/apollo-13/apollo-13.html HTTP/1.0" 200 18556
windy.blwtl.uwo.ca - - [05/Aug/1995:15:30:29 -0400] "GET /history/apollo/apollo-13/images/ HTTP/1.0" 200 1851
dp097.ppp.iglou.com - - [05/Aug/1995:15:30:30 -0400] "GET /history/apollo/apollo-13/apollo-13-patch-small.gif HTTP/1.0" 200 12859
ws03.pandora.com - - [05/Aug/1995:15:30:32 -0400] "GET /shuttle/missions/sts-71/images/KSC-95EC-0912.txt HTTP/1.0" 200 1400
ziggy.lpl.arizona.edu - - [05/Aug/1995:15:30:33 -0400] "GET /cgi-bin/imagemap/countdown69?66,192 HTTP/1.0" 302 96
ix-sar-fl2-10.ix.netcom.com - - [05/Aug/1995:15:30:37 -0400] "GET /shuttle/missions/51-l/51-l-patch.jpg HTTP/1.0" 200 164646
sun20.ccd.bnl.gov - - [05/Aug/1995:15:30:38 -0400] "GET /images/MOSAIC-logosmall.gif HTTP/1.0" 200 363
163.246.109.8 - - [05/Aug/1995:15:30:38 -0400] "GET /shuttle/missions/sts-69/mission-sts-69.html HTTP/1.0" 200 11264
163.246.109.8 - - [05/Aug/1995:15:30:41 -0400] "GET /shuttle/missions/sts-69/sts-69-patch-small.gif HTTP/1.0" 200 8083
windy.blwtl.uwo.ca - - [05/Aug/1995:15:30:41 -0400] "GET /history/apollo/apollo-17/apollo-17.html HTTP/1.0" 200 2732
sun20.ccd.bnl.gov - - [05/Aug/1995:15:30:41 -0400] "GET /images/KSC-logosmall.gif HTTP/1.0" 404 1204
windy.blwtl.uwo.ca - - [05/Aug/1995:15:30:42 -0400] "GET /history/apollo/apollo-17/apollo-17-patch-small.gif HTTP/1.0" 404 14977
windy.blwtl.uwo.ca - - [05/Aug/1995:15:30:48 -0400] "GET /history/apollo/apollo-17/apollo-17-info.html HTTP/1.0" 200 1457
dp097.ppp.iglou.com - - [05/Aug/1995:15:30:49 -0400] "GET /images/ksclogosmall.gif HTTP/1.0" 200 3635
windy.blwtl.uwo.ca - - [05/Aug/1995:15:30:50 -0400] "GET /history/apollo/apollo-17/movies/ HTTP/1.0" 200 381
163.246.109.8 - - [05/Aug/1995:15:30:50 -0400] "GET /images/launch-logo.gif HTTP/1.0" 200 1713
dp097.ppp.iglou.com - - [05/Aug/1995:15:30:54 -0400] "GET /history/apollo/images/footprint-logo.gif HTTP/1.0" 200 4209
134.68.205.31 - - [05/Aug/1995:15:30:55 -0400] "GET /shuttle/missions/sts-70/images/DSC-95EC-0001.jpg HTTP/1.0" 200 513911
dp097.ppp.iglou.com - - [05/Aug/1995:15:30:56 -0400] "GET /ksc.html HTTP/1.0" 200 7034
bllabsi.ls.nwu.edu - - [05/Aug/1995:15:37:03 -0400] "GET /history/skylab/skylab.html HTTP/1.0" 200 1687
bllabsi.ls.nwu.edu - - [05/Aug/1995:15:37:04 -0400] "GET /history/skylab/skylab-small.gif HTTP/1.0" 200 9202
bllabsi.ls.nwu.edu - - [05/Aug/1995:15:37:04 -0400] "GET /images/ksclogosmall.gif HTTP/1.0" 200 3635
bllabsi.ls.nwu.edu - - [05/Aug/1995:15:37:05 -0400] "GET /history/apollo/images/apollo-logo.gif HTTP/1.0" 404 3047
ix-nor-va2-12.ix.netcom.com - - [05/Aug/1995:15:37:07 -0400] "GET /facilities/tour.html HTTP/1.0" 200 3723
dialup96-059.swipnet.se - - [05/Aug/1995:15:37:08 -0400] "GET /statistics/1995/Jul/Jul95.html HTTP/1.0" 200 9710
dialup96-059.swipnet.se - - [05/Aug/1995:15:37:10 -0400] "GET /statistics/1995/Jul/Jul95_request.gif HTTP/1.0" 200 18557
www-a1.proxy.aol.com - - [05/Aug/1995:15:37:10 -0400] "GET /icons/image.xbm HTTP/1.0" 200 509
dialup96-059.swipnet.se - - [05/Aug/1995:15:37:10 -0400] "GET /statistics/1995/Jul/Jul95_byte.gif HTTP/1.0" 200 18885
ix-nor-va2-12.ix.netcom.com - - [05/Aug/1995:15:37:11 -0400] "GET /images/kscmap-small.gif HTTP/1.0" 404 39017
bllabsi.ls.nwu.edu - - [05/Aug/1995:15:37:12 -0400] "GET /history/skylab/skylab-4.html HTTP/1.0" 200 1165
bllabsi.ls.nwu.edu - - [05/Aug/1995:15:37:13 -0400] "GET /history/skylab/skylab-4-small.gif HTTP/1.0" 200 13775
bllabsi.ls.nwu.edu - - [05/Aug/1995:15:37:13 -0400] "GET /history/skylab/skylab-logo.gif HTTP/1.0" 200 3274
client-71-95.online.apple.com - - [05/Aug/1995:15:37:15 -0400] "GET /images/launchmedium.gif HTTP/1.0" 200 11853
www-a1.proxy.aol.com - - [05/Aug/1995:15:37:20 -0400] "GET /icons/unknown.xbm HTTP/1.0" 404 515
www-b5.proxy.aol.com - - [05/Aug/1995:15:37:20 -0400] "GET /cgi-bin/imagemap/countdown69?335,288 HTTP/1.0" 302 104
www-b5.proxy.aol.com - - [05/Aug/1995:15:37:22 -0400] "GET /shuttle/missions/sts-69/liftoff.html HTTP/1.0" 200 4665
dd15-020.compuserve.com - - [05/Aug/1995:15:37:25 -0400] "GET /elv/DELTA/dedesc.htm HTTP/1.0" 404 4554
bos77.pi.net - - [05/Aug/1995:15:37:29 -0400] "GET / HTTP/1.0" 200 7034
plttm.rndtm.com.my - - [05/Aug/1995:15:37:31 -0400] "GET /software/winvn/wvlarge.gif HTTP/1.0" 404 23416
dd15-020.compuserve.com - - [05/Aug/1995:15:37:34 -0400] "GET /elv/elvhead2.gif HTTP/1.0" 200 1733
bos77.pi.net - - [05/Aug/1995:15:37:43 -0400] "GET /images/ksclogo-medium.gif HTTP/1.0" 200 5866
bos77.pi.net - - [05/Aug/1995:15:37:43 -0400] "GET /images/NASA-logosmall.gif HTTP/1.0" 200 786
bos77.pi.net - - [05/Aug/1995:15:37:43 -0400] "GET /images/MOSAIC-logosmall.gif HTTP/1.0" 200 363