student   0   Barry
student   1   Antil
mark   DAPA   1   64
mark   IAML   2   72
mark   CCN   2   82
mark   AR   1   82
mark   COC   2   49
mark   SLIP   1   40
mark   BIO2   1   71
student   2   Josh
student   3   Andry
mark   TTS   3   97
mark   EXC   1   43
mark   IJP   2   89
mark   ES   3   98
mark   AV   1   57
student   4   Antle
student   5   Dasia
student   6   Ambrose
student   7   Michael
student   8   Sebastian
student   9   Acock
mark   COPT   0   100
mark   ADS   0   46
student   10   Annand
student   11   Arkell
student   12   Ackerman
student   13   Ackley
mark   AGTA   13   65
student   14   Angleton
student   15   Allerton
mark   IRP   9   77
student   16   Ackland
student   17   Finley
mark   AR   2   84
mark   DMR   9   42
student   18   Airington
mark   IRP   13   77
mark   ABS   18   60
mark   TTS   4   51
mark   IAML   4   77
student   19   Juliet
mark   PPLS   13   80
mark   DISS   5   64
student   20   Alltop
student   21   Danna
mark   AR   14   82
mark   INF1-CG   4   93
student   22   Aborn
student   23   Anslow
mark   BIO2   14   92
mark   RTN   14   72
student   24   Kaitlyn
student   25   Arkell
student   26   Mason
student   27   Applewhite
student   28   Harvey
student   29   Adderly
mark   EXC   6   84
mark   PM   21   79
mark   ES   17   96
student   30   Darlene
mark   TDD   8   99
student   31   Allred
student   32   Ager
mark   RTN   31   47
student   33   Benjamin
mark   TDD   1   67
student   34   Alley
mark   ABS   10   52
mark   DAPA   34   73
student   35   Ailey
mark   ES   29   97
mark   HCI   14   52
mark   DISS   3   54
student   36   Allie
mark   IRP   35   58
student   37   Acre
student   38   Angevine
student   39   Angel
mark   TDD   14   58
student   40   Jay
student   41   Andrew
student   42   Ament
mark   AGTA   17   88
mark   ADBS   13   63
mark   DISS   10   97
mark   TTS   27   52
student   43   Archey
student   44   Allford
student   45   Blake
mark   ASR   41   83
student   46   Ancell
student   47   Kailey
student   48   Addy
student   49   Angleton
student   50   Bevis
student   51   Kalyn
student   52   Amory
mark   PPLS   36   76
student   53   Bartholomew
mark   ASR   2   61
student   54   Allanson
student   55   Oscar
student   56   Alman
student   57   Anable
student   58   Anthony
mark   INF2D   19   54
mark   ANLP   44   73
student   59   Alders
student   60   Delilah
mark   TDD   35   82
student   61   Allums
student   62   Ady
mark   IAML   33   82
student   63   Alcock
student   64   Corinne
mark   BIO2   44   88
mark   DISS   58   82
mark   INF2D   32   96
mark   TTS   18   69
mark   IAML   44   87
mark   AGTA   9   97
mark   BIO2   63   100
student   65   Angevine
mark   IRP   28   66
mark   ASR   30   78
mark   COPT   23   87
mark   DISS   53   52
student   66   Alloway
mark   CCN   60   78
student   67   Kyle
student   68   Deasia
mark   TTS   6   91
student   69   Ale
mark   BIO2   24   54
mark   PM   23   40
mark   TTS   59   49
student   70   Arch
mark   BIO2   65   76
mark   PM   35   62
student   71   Annable
student   72   Arling
student   73   Spencer
student   74   Allgood
student   75   Alison
mark   AGTA   68   65
student   76   Finley
student   77   Adkins
student   78   Allford
student   79   Jude
student   80   Abram
student   81   Archdeacon
mark   DAPA   38   62
mark   EXC   50   68
mark   COC   7   77
student   82   Agar
mark   COC   30   85
mark   BIO1   2   92
student   83   Anchors
mark   INF1-CG   72   70
mark   BIO1   9   49
mark   SLIP   69   64
mark   ADS   71   41
mark   NIP   77   88
student   84   Alred
student   85   Kaleigh
mark   DAPA   7   90
mark   CCN   8   86
student   86   Arling
mark   TTS   51   67
mark   ASR   24   96
student   87   Albany
mark   IJP   59   54
mark   BIO1   85   54
mark   IAML   12   74
student   88   Addington
mark   HCI   29   79
mark   DISS   6   76
student   89   Apling
mark   ABS   87   42
mark   ES   56   66
student   90   Cristal
student   91   Oliver
mark   COC   26   55
student   92   Apley
mark   COC   82   65
student   93   Ackers
student   94   Argent
student   95   Anable
student   96   Ann
student   97   Alban
mark   CT   72   41
mark   NIP   84   50
mark   DAPA   65   95
mark   IJP   51   87
mark   TTS   89   54
mark   NIP   51   54
mark   ABS   55   67
mark   INF2D   8   57
student   98   Ansted
mark   IAML   18   90
student   99   Claudia
mark   ADS   8   60
student   100   Acy
student   101   Ake
mark   PPLS   52   53
mark   ASR   23   73
student   102   Amison
mark   RTN   37   98
mark   IRP   16   85
student   103   Oliver
student   104   Akerley
student   105   Agar
student   106   Kamryn
mark   ES   27   95
mark   ADBS   26   61
student   107   Leo
mark   ABS   64   59
student   108   Adrian
student   109   Darby
student   110   Annand
student   111   Kacie
mark   ADBS   74   76
student   112   Ailey
mark   INF2D   20   68
student   113   Alton
mark   ES   65   58
student   114   Finlay
mark   ADS   9   70
student   115   Abram
mark   EXC   75   61
mark   IJP   108   40
mark   PPLS   30   91
student   116   Leon
student   117   Aldredge
mark   ABS   108   41
student   118   Crystal
student   119   Abbitt
mark   RTN   64   96
mark   ADS   31   72
student   120   Agard
mark   ASR   94   68
student   121   Sebastian
student   122   Kieran
mark   DAPA   77   68
mark   COC   0   74
mark   AR   115   46
student   123   Cristal
mark   ES   51   89
student   124   Kalyn
student   125   Logan
student   126   Anchors
student   127   Allin
mark   TDD   61   92
student   128   Mason
mark   ANLP   68   54
student   129   Alfrey
mark   TDD   110   69
mark   ADBS   18   60
student   130   Allred
mark   HCI   108   40
mark   INF1-CG   58   86
student   131   Angers
student   132   Colleen
mark   ADS   66   89
mark   DISS   55   44
student   133   Aldis
student   134   Alwood
student   135   Leo
student   136   Akin
student   137   Allmand
student   138   Allis
mark   DISS   34   100
student   139   Anson
student   140   Ansley
student   141   Alban
mark   BIO1   93   94
student   142   Akey
student   143   Algood
mark   BIO1   64   89
student   144   Alward
mark   INF1-CG   17   74
mark   ABS   99   92
student   145   Angleton
mark   TDD   98   51
student   146   Bowen
student   147   Michael
mark   TDD   63   76
mark   CT   82   44
mark   BIO2   49   97
student   148   Kaelyn
student   149   Alvey
mark   SLIP   65   95
student   150   Alman
mark   PPLS   37   68
student   151   Abbey
mark   COPT   55   74
student   152   Basil
mark   CT   59   70
mark   COPT   39   40
mark   ANLP   119   82
student   153   Adley
student   154   Acre
mark   TTS   76   43
student   155   Finlay
mark   CCN   66   50
mark   PM   0   89
mark   AR   88   98
student   156   Ann
mark   TTS   73   63
mark   AR   92   61
student   157   Ailstock
mark   ASR   25   92
mark   CCN   79   63
student   158   Allee
student   159   Alway
mark   DISS   92   45
mark   PPLS   145   54
student   160   Alvis
mark   INF1-CG   59   53
mark   HCI   102   51
mark   DAPA   39   96
student   161   Kaley
student   162   Allyn
student   163   Arch
student   164   Arber
mark   DISS   158   92
mark   AV   9   86
mark   IAML   54   71
mark   CCN   15   64
mark   SLIP   18   96
student   165   Alls
mark   NIP   43   61
mark   IRR   62   77
student   166   Cora
mark   TTS   153   41
mark   ADBS   152   84
mark   BIO2   151   87
student   167   Ailes
mark   AR   146   53
student   168   Alday
mark   ANLP   25   67
mark   IRP   112   95
mark   DAPA   106   80
mark   DMR   103   68
mark   HCI   35   51
mark   PM   43   53
student   169   Alley
mark   INF2D   16   81
student   170   Darlene
student   171   Amerson
mark   ADS   126   83
mark   DAPA   22   53
mark   PPLS   90   82
student   172   Aborn
mark   DAPA   83   50
mark   COC   171   79
mark   EXC   110   74
student   173   Aley
mark   INF1-CG   32   76
mark   HCI   23   42
student   174   William
mark   ASR   105   70
student   175   Ace
mark   TTS   87   58
student   176   Argent
student   177   Alcock
student   178   Ailey
mark   CCN   153   60
mark   CT   4   54
mark   IJP   141   63
mark   DMR   106   87
student   179   Baron
student   180   Alvord
student   181   James
student   182   Akes
mark   AV   183   44
student   183   Harry
student   184   Allred
student   185   Alvord
student   186   Angel
student   187   Appleton
student   188   Alvis
mark   ES   41   72
mark   SLIP   94   90
mark   IJP   25   73
student   189   Aney
mark   RTN   72   64
student   190   Patrick
student   191   Danna
mark   AV   156   74
student   192   Adkinson
mark   HCI   113   86
student   193   Ammon
mark   DMR   5   50
student   194   Harry
student   195   Allington
student   196   Benedict
mark   ASR   6   84
student   197   Dayana
student   198   Alday
mark   ABS   173   99
mark   ADS   161   63
student   199   Allred
mark   TDD   113   73
mark   IRP   70   50
student   200   Amason
student   201   Adley
mark   BIO2   121   54
student   202   Finley
mark   ABS   159   52
student   203   Acomb
student   204   Bernard
student   205   Anness
mark   DISS   191   64
mark   PPLS   181   42
mark   EXC   17   51
mark   COC   170   83
mark   ES   171   51
student   206   Dalia
student   207   Allsop
mark   NIP   96   65
student   208   Alvin
student   209   Adcock
mark   CT   182   53
student   210   Allums
mark   BIO1   57   66
mark   ANLP   47   90
mark   IRP   123   91
mark   TDD   29   53
student   211   Braden
mark   ANLP   140   78
student   212   Andrew
mark   COC   57   56
mark   IRP   7   81
mark   DAPA   79   94
student   213   Allinson
mark   IRR   1   56
student   214   Joel
student   215   Cristina
mark   DAPA   97   62
student   216   Alders
student   217   Kaia
mark   EXC   138   82
mark   IRR   200   55
student   218   Adrian
mark   AV   124   97
mark   SLIP   5   64
mark   PM   71   50
mark   IAML   19   89
mark   CT   24   92
student   219   Dayana
student   220   Kallie
student   221   John
mark   COC   59   93
student   222   Anctil
mark   PPLS   26   55
student   223   Bowen
student   224   Judith
student   225   Ailstock
mark   ADS   56   99
student   226   Annas
mark   TDD   50   92
student   227   Able
mark   EXC   193   91
student   228   Anable
student   229   Kali
student   230   Acklin
student   231   Acomb
student   232   Abby
student   233   Kaitlin
mark   HCI   213   85
mark   ABS   105   94
student   234   Ace
mark   ANLP   128   81
mark   RTN   138   48
student   235   Benjamin
student   236   Age
mark   AR   201   41
mark   BIO1   48   78
student   237   Antill
student   238   Delaney
student   239   Ament
mark   COC   190   55
student   240   Abrahams
mark   INF1-CG   196   74
mark   IJP   58   87
student   241   Daisy
mark   CCN   242   80
mark   BIO1   172   50
mark   PM   55   64
mark   ADS   241   61
mark   ADS   113   62
student   242   Kallie
student   243   George
student   244   Ally
mark   AR   216   68
mark   BIO1   110   40
mark   ANLP   58   61
mark   AV   167   61
student   245   Dana
mark   IRP   243   56